Electricity Market Prices Analysis of July 2020
…
Daily Average MCP and SMP

plot2 <- Dataset %>% group_by(day = lubridate::day(dt)) %>% summarise(daily_avg_MCP= mean(MCP), daily_avg_SMP= mean(SMP))

print(plot2)

## # A tibble: 31 x 3
##      day daily_avg_MCP daily_avg_SMP
##    <int>         <dbl>         <dbl>
##  1     1          320.          268.
##  2     2          298.          357.
##  3     3          317.          373.
##  4     4          306.          321.
##  5     5          258.          198.
##  6     6          290.          307.
##  7     7          307.          298.
##  8     8          304.          191.
##  9     9          288.          189.
## 10    10          282.          292.
## #  with 21 more rows
…
